<mxfile host="app.diagrams.net" modified="2024-05-20T08:24:00.991Z" agent="Mozilla/5.0 (Windows NT 10.0; Win64; x64) AppleWebKit/537.36 (KHTML, like Gecko) Chrome/124.0.0.0 Safari/537.36" version="24.4.4" etag="NV53zzg_qMAEKkzsVbz3" type="gitlab">
  <diagram name="Page-1" id="apASqx1qAuCV3dyvSEiM">
    <mxGraphModel>
      <root>
        <mxCell id="0" />
        <mxCell id="1" parent="0" />
      </root>
    </mxGraphModel>
  </diagram>
</mxfile>
